HomeWork1
…
workflow = workflow() %>%
  add_model(tune_spec) %>% 
  add_formula(sale_price ~ .)

Tuning the lambda

tune_result = workflow %>% 
  tune_grid(validation_split,
            grid = lambda_grid,
            metrics = metric_set(rmse))

tune_result %>% 
  collect_metrics()

## # A tibble: 100 x 7
##     penalty .metric .estimator  mean     n std_err .config               
##       <dbl> <chr>   <chr>      <dbl> <int>   <dbl> <chr>                 
##  1 1.00e-10 rmse    standard   0.262     1      NA Preprocessor1_Model001
##  2 1.26e-10 rmse    standard   0.262     1      NA Preprocessor1_Model002
##  3 1.59e-10 rmse    standard   0.262     1      NA Preprocessor1_Model003
##  4 2.01e-10 rmse    standard   0.262     1      NA Preprocessor1_Model004
##  5 2.54e-10 rmse    standard   0.262     1      NA Preprocessor1_Model005
##  6 3.20e-10 rmse    standard   0.262     1      NA Preprocessor1_Model006
##  7 4.04e-10 rmse    standard   0.262     1      NA Preprocessor1_Model007
##  8 5.09e-10 rmse    standard   0.262     1      NA Preprocessor1_Model008
##  9 6.43e-10 rmse    standard   0.262     1      NA Preprocessor1_Model009
## 10 8.11e-10 rmse    standard   0.262     1      NA Preprocessor1_Model010
## #  with 90 more rows
…
